Using the tidyverse tidyr package to make wide datasets tall
…
Display Monthly Rain Gauge Accumulations for Seattle

seattle_rain 

## # A tibble: 175 x 18
##    Date   RG01  RG02  RG03  RG04  RG05  RG07  RG08  RG09 RG10_30  RG11
##    <chr> <dbl> <dbl> <dbl> <dbl> <dbl> <dbl> <dbl> <dbl>   <dbl> <dbl>
##  1 11/3…  2.43  3.36 2.88   2.48 0.78   2.49 2.57   2.93    3.25  2.38
##  2 12/3…  4.31  1.4  5.46   4.8  1.99   5.06 2.48   2.35    6.48  4.95
##  3 01/3…  6.55  7.35 5.84   6.48 7.57   4.47 7.39   7.31    5.42  6.58
##  4 02/2…  1.61  1.81 1.7    1.49 1.11   1.5  1.56   1.73    1.18  1.37
##  5 03/3…  5.01  5.88 3.12   5.01 5.09   5.15 5.14   5.01    5.68  4.01
##  6 04/3…  2.27  3.15 2.69   2.56 2.2    2.49 2.5    1.45    1.78  2.34
##  7 05/3…  0.91  1.49 1.51   1.4  0.43   1.59 0.98   0.93    0.83  1.45
##  8 06/3…  0.49  0.89 0.4    0.34 0.570  0.94 0.75   0.79    0.33  0.82
##  9 07/3…  0.12  0.18 0.16   0.51 0.17   0.89 0.21   0.06    0.14  0.2 
## 10 08/3…  0.33  0.46 0.290  0.26 0.37   1.33 0.570  0.22    0.68  0.3 
## # ... with 165 more rows, and 7 more variables: RG12 <dbl>, RG14 <dbl>,
## #   RG15 <dbl>, RG16 <dbl>, RG17 <dbl>, RG18 <dbl>, RG20_25 <dbl>

gather columns RG01 through RG20_25

library(tidyr) 
seattle_rain_tall <- seattle_rain %>% 
  gather(RG01:RG20_25, key = rain_gauge, value = precip_inches) 
seattle_rain_tall

## # A tibble: 2,975 x 3
##    Date       rain_gauge precip_inches
##    <chr>      <chr>              <dbl>
##  1 11/30/2002 RG01                2.43
##  2 12/31/2002 RG01                4.31
##  3 01/31/2003 RG01                6.55
##  4 02/28/2003 RG01                1.61
##  5 03/31/2003 RG01                5.01
##  6 04/30/2003 RG01                2.27
##  7 05/31/2003 RG01                0.91
##  8 06/30/2003 RG01                0.49
##  9 07/31/2003 RG01                0.12
## 10 08/31/2003 RG01                0.33
## # ... with 2,965 more rows

gather all columns except Date

library(tidyr) 
seattle_rain_tall <- seattle_rain %>% 
  gather(key = rain_gauge, value = precip_inches, -Date) # Same result as before!
seattle_rain_tall 

## # A tibble: 2,975 x 3
##    Date       rain_gauge precip_inches
##    <chr>      <chr>              <dbl>
##  1 11/30/2002 RG01                2.43
##  2 12/31/2002 RG01                4.31
##  3 01/31/2003 RG01                6.55
##  4 02/28/2003 RG01                1.61
##  5 03/31/2003 RG01                5.01
##  6 04/30/2003 RG01                2.27
##  7 05/31/2003 RG01                0.91
##  8 06/30/2003 RG01                0.49
##  9 07/31/2003 RG01                0.12
## 10 08/31/2003 RG01                0.33
## # ... with 2,965 more rows
…
