…
High sale price observations

home_sales %>% arrange(desc(sale_price)) %>% select(c("sale_price", "location", "classification", "bedrooms", "square_feet")) %>% head(30)

## # A tibble: 30 x 5
##    sale_price location   classification bedrooms square_feet
##         <dbl> <chr>      <chr>             <dbl>       <dbl>
##  1    2800000 CARBONDALE Single Family         2         764
##  2    2800000 CARBONDALE Single Family         2        3906
##  3    2750000 CARBONDALE Single Family         0         680
##  4    2750000 CARBONDALE Single Family         3        3648
##  5    2200000 RIFLE      Townhome              3        1417
##  6    2200000 RIFLE      Townhome              3        1417
##  7    2200000 RIFLE      Townhome              3        1417
##  8    2200000 RIFLE      Townhome              3        1417
##  9    2200000 RIFLE      Townhome              3        1417
## 10    2200000 RIFLE      Townhome              3        1417
## # ... with 20 more rows
…
