…
High sale price observations

home_sales %>% arrange(desc(sale_price)) %>% select(c("sale_price", "location", "classification", "bedrooms", "square_feet")) %>% head(30)

## # A tibble: 30 x 5
##    sale_price location   classification bedrooms square_feet
##         <dbl> <chr>      <chr>             <dbl>       <dbl>
##  1    2800000 CARBONDALE Single Family         2         764
##  2    2800000 CARBONDALE Single Family         2        3906
##  3    2750000 CARBONDALE Single Family         0         680
##  4    2750000 CARBONDALE Single Family         3        3648
##  5    2200000 RIFLE      Townhome              3        1417
##  6    2200000 RIFLE      Townhome              3        1417
##  7    2200000 RIFLE      Townhome              3        1417
##  8    2200000 RIFLE      Townhome              3        1417
##  9    2200000 RIFLE      Townhome              3        1417
## 10    2200000 RIFLE      Townhome              3        1417
## # ... with 20 more rows
…
Tidying wide datasets

seattle_rain # Display Monthly Rain Gauge Accumulations for Seattle

## # A tibble: 175 x 18
##    Date   RG01  RG02  RG03  RG04  RG05  RG07  RG08  RG09 RG10_30  RG11
##    <chr> <dbl> <dbl> <dbl> <dbl> <dbl> <dbl> <dbl> <dbl>   <dbl> <dbl>
##  1 11/3…  2.43  3.36 2.88   2.48 0.78   2.49 2.57   2.93    3.25  2.38
##  2 12/3…  4.31  1.4  5.46   4.8  1.99   5.06 2.48   2.35    6.48  4.95
##  3 01/3…  6.55  7.35 5.84   6.48 7.57   4.47 7.39   7.31    5.42  6.58
##  4 02/2…  1.61  1.81 1.7    1.49 1.11   1.5  1.56   1.73    1.18  1.37
##  5 03/3…  5.01  5.88 3.12   5.01 5.09   5.15 5.14   5.01    5.68  4.01
##  6 04/3…  2.27  3.15 2.69   2.56 2.2    2.49 2.5    1.45    1.78  2.34
##  7 05/3…  0.91  1.49 1.51   1.4  0.43   1.59 0.98   0.93    0.83  1.45
##  8 06/3…  0.49  0.89 0.4    0.34 0.570  0.94 0.75   0.79    0.33  0.82
##  9 07/3…  0.12  0.18 0.16   0.51 0.17   0.89 0.21   0.06    0.14  0.2 
## 10 08/3…  0.33  0.46 0.290  0.26 0.37   1.33 0.570  0.22    0.68  0.3 
## # ... with 165 more rows, and 7 more variables: RG12 <dbl>, RG14 <dbl>,
## #   RG15 <dbl>, RG16 <dbl>, RG17 <dbl>, RG18 <dbl>, RG20_25 <dbl>

gather columns RG01 through RG20_25

library(tidyr) 
seattle_rain_tall <- seattle_rain %>% 
  gather(RG01:RG20_25, key = rain_gauge, value = precip_inches) 
seattle_rain_tall

## # A tibble: 2,975 x 3
##    Date       rain_gauge precip_inches
##    <chr>      <chr>              <dbl>
##  1 11/30/2002 RG01                2.43
##  2 12/31/2002 RG01                4.31
##  3 01/31/2003 RG01                6.55
##  4 02/28/2003 RG01                1.61
##  5 03/31/2003 RG01                5.01
##  6 04/30/2003 RG01                2.27
##  7 05/31/2003 RG01                0.91
##  8 06/30/2003 RG01                0.49
##  9 07/31/2003 RG01                0.12
## 10 08/31/2003 RG01                0.33
## # ... with 2,965 more rows

gather all columns except Date

library(tidyr) 
seattle_rain_tall <- seattle_rain %>% 
  gather(key = rain_gauge, value = precip_inches, -Date) # Same result as before!
seattle_rain_tall 

## # A tibble: 2,975 x 3
##    Date       rain_gauge precip_inches
##    <chr>      <chr>              <dbl>
##  1 11/30/2002 RG01                2.43
##  2 12/31/2002 RG01                4.31
##  3 01/31/2003 RG01                6.55
##  4 02/28/2003 RG01                1.61
##  5 03/31/2003 RG01                5.01
##  6 04/30/2003 RG01                2.27
##  7 05/31/2003 RG01                0.91
##  8 06/30/2003 RG01                0.49
##  9 07/31/2003 RG01                0.12
## 10 08/31/2003 RG01                0.33
## # ... with 2,965 more rows
…
## # A tibble: 6 x 2
##   location   data               
##   <chr>      <list>             
## 1 CARBONDALE <tibble [379 × 13]>
## 2 GLENWOOD   <tibble [441 × 13]>
## 3 NEW CASTLE <tibble [327 × 13]>
## 4 PARACHUTE  <tibble [202 × 13]>
## 5 RIFLE      <tibble [370 × 13]>
## 6 SILT       <tibble [225 × 13]>

Examine the data for New Castle

home_sales_fix_models$data[[3]]

## # A tibble: 327 x 13
##    account parcel_number reception sale_date sale_price situs_address
##    <chr>   <chr>         <chr>     <chr>          <dbl> <chr>        
##  1 R044215 212331109026  860557    3/16/2015     145000 000176 N 4TH…
##  2 R380139 212331107012  868155    9/16/2015     195000 000146 N 2ND…
##  3 R043923 212331110031  866949    8/14/2015     162000 000161 N 4TH…
##  4 R380402 212331226003  875582    4/4/2016      205000 000222 N 7TH…
##  5 R040070 212325300002  872566    1/13/2016     375000 000570 137 C…
##  6 R380215 212331223016  861672    4/17/2015     176900 000640 W MAI…
##  7 R015027 218106400058  858833    1/30/2015     255000 005341 214 C…
##  8 R170410 218332101001  872474    1/13/2016     485000 008149 312 C…
##  9 R005504 212330320001  866365    8/4/2015      268500 000601 LARIA…
## 10 R005511 212330320008  878740    6/23/2016     299000 000623 LARIA…
## # ... with 317 more rows, and 7 more variables: architectural_style <chr>,
## #   year_built <dbl>, bedrooms <dbl>, baths <dbl>, square_feet <dbl>,
## #   legal <chr>, classification <chr>

Unnesting returns to original

unnest(home_sales_fix_models)

## # A tibble: 1,944 x 14
##    location account parcel_number reception sale_date sale_price
##    <chr>    <chr>   <chr>         <chr>     <chr>          <dbl>
##  1 CARBOND… R340967 239334401005  879240    6/29/2016     650000
##  2 CARBOND… R340073 239334200010  870778    11/24/20…     560000
##  3 CARBOND… R112063 239335100057  869383    10/13/20…    2750000
##  4 CARBOND… R580140 239334366004  857328    12/18/20…     630500
##  5 CARBOND… R043949 239120300276  853541    9/12/2014    2800000
##  6 CARBOND… R011301 239120300057  868354    9/21/2015     785000
##  7 CARBOND… R011415 239325100148  861479    4/10/2015    1200000
##  8 CARBOND… R005930 246304125013  875431    3/24/2016    1040000
##  9 CARBOND… R040419 246303100026  865422    7/13/2015     340000
## 10 CARBOND… R041666 239334268001  868224    9/15/2015     395000
## # ... with 1,934 more rows, and 8 more variables: situs_address <chr>,
## #   architectural_style <chr>, year_built <dbl>, bedrooms <dbl>,
## #   baths <dbl>, square_feet <dbl>, legal <chr>, classification <chr>
…
Examine residuals for New Castle

home_sales_fix_models$data[[3]] %>% 
  select(sale_price, square_feet, resid)

## # A tibble: 327 x 3
##    sale_price square_feet    resid
##         <dbl>       <dbl>    <dbl>
##  1     145000         450   16124.
##  2     195000         768   24551.
##  3     162000         800  -12632.
##  4     205000         864   22001.
##  5     375000         900  187294.
##  6     176900         947  -16950.
##  7     255000        1064   45854.
##  8     485000        1076  274285.
##  9     268500        1148   48372.
## 10     299000        1148   78872.
## # ... with 317 more rows
…
